<?xml version="1.0" encoding="utf-8"?>
<!-- Generator: Adobe Illustrator 16.0.0, SVG Export Plug-In . SVG Version: 6.00 Build 0)  -->
<!DOCTYPE svg PUBLIC "-//W3C//DTD SVG 1.1//EN" "http://www.w3.org/Graphics/SVG/1.1/DTD/svg11.dtd">
<svg version="1.1" id="Layer_1" xmlns="http://www.w3.org/2000/svg" xmlns:xlink="http://www.w3.org/1999/xlink" x="0px" y="0px"
	 width="24px" height="24px" viewBox="0 0 24 24" enable-background="new 0 0 24 24" xml:space="preserve">
<g>
	<path fill="#010101" d="M24,12.001C24,5.374,18.628,0,12,0S0,5.374,0,12.001S5.372,24,12,24c2.134,0,4.134-0.562,5.869-1.539
		c0.195-0.07,0.336-0.255,0.336-0.476c0-0.199-0.115-0.368-0.282-0.452l0.001-0.001l-2.09-1.28v0.001
		c-0.088-0.073-0.199-0.118-0.322-0.118c-0.076,0-0.147,0.018-0.212,0.048l-0.005-0.004c-1.018,0.412-2.13,0.641-3.295,0.641
		c-4.863,0-8.819-3.956-8.819-8.818c0-4.863,3.956-8.82,8.819-8.82c4.583,0,8.358,3.515,8.778,7.989
		c-0.001,3.204-1.399,4.99-2.496,4.99c-0.591,0-1.042-0.394-1.042-1.267c0-0.169,0.057-0.535,0.085-0.676l1.332-6.373h-0.006
		c0.004-0.022,0.014-0.044,0.014-0.067c0-0.234-0.19-0.426-0.426-0.426h-2.313c-0.21,0-0.377,0.155-0.411,0.355h-0.009l-0.235,1.136
		c-0.591-1.069-1.802-1.886-3.518-1.886c-3.266,0-6.361,3.125-6.361,6.896c0,2.729,1.633,4.729,4.362,4.729
		c1.52,0,3.068-0.873,4.053-2.252l0.028,0.169c0.197,1.069,3.149,2.425,4.839,2.425c2.448,0,5.317-1.65,5.317-6.379l-0.007-0.003
		C23.992,12.361,24,12.182,24,12.001z M14.117,14.19c-0.62,0.872-1.633,1.857-3.125,1.857c-1.435,0-2.308-1.014-2.308-2.477
		c0-2.055,1.604-4.081,3.856-4.081c1.266,0,1.998,0.816,2.279,1.436L14.117,14.19z"/>
</g>
</svg>
